{"type": "server", "timestamp": "2020-11-24T08:56:55,453+01:00", "level": "INFO", "component": "o.e.n.Node", "cluster.name": "elasticsearch", "node.name": "DESKTOP-SGTF270", "message": "version[7.10.0], pid[1288], build[default/zip/51e9d6f22758d0374a0f3f5c6e8f3a7997850f96/2020-11-09T21:30:33.964949Z], OS[Windows 10/10.0/amd64], JVM[AdoptOpenJDK/OpenJDK 64-Bit Server VM/15.0.1/15.0.1+9]" }
{"type": "server", "timestamp": "2020-11-24T08:56:55,500+01:00", "level": "INFO", "component": "o.e.n.Node", "cluster.name": "elasticsearch", "node.name": "DESKTOP-SGTF270", "message": "JVM home [D:\\Projects\\react\\workapp\\workapp\\elasticsearch-7.10.0\\jdk], using bundled JDK [true]" }
{"type": "server", "timestamp": "2020-11-24T08:56:55,500+01:00", "level": "INFO", "component": "o.e.n.Node", "cluster.name": "elasticsearch", "node.name": "DESKTOP-SGTF270", "message": "JVM arguments [-Des.networkaddress.cache.ttl=60, -Des.networkaddress.cache.negative.ttl=10, -XX:+AlwaysPreTouch, -Xss1m, -Djava.awt.headless=true, -Dfile.encoding=UTF-8, -Djna.nosys=true, -XX:-OmitStackTraceInFastThrow, -XX:+ShowCodeDetailsInExceptionMessages, -Dio.netty.noUnsafe=true, -Dio.netty.noKeySetOptimization=true, -Dio.netty.recycler.maxCapacityPerThread=0, -Dio.netty.allocator.numDirectArenas=0, -Dlog4j.shutdownHookEnabled=false, -Dlog4j2.disable.jmx=true, -Djava.locale.providers=SPI,COMPAT, -Xms1g, -Xmx1g, -XX:+UseG1GC, -XX:G1ReservePercent=25, -XX:InitiatingHeapOccupancyPercent=30, -Djava.io.tmpdir=C:\\Users\\ALESSA~1\\AppData\\Local\\Temp\\elasticsearch, -XX:+HeapDumpOnOutOfMemoryError, -XX:HeapDumpPath=data, -XX:ErrorFile=logs/hs_err_pid%p.log, -Xlog:gc*,gc+age=trace,safepoint:file=logs/gc.log:utctime,pid,tags:filecount=32,filesize=64m, -XX:MaxDirectMemorySize=536870912, -Delasticsearch, -Des.path.home=D:\\Projects\\react\\workapp\\workapp\\elasticsearch-7.10.0, -Des.path.conf=D:\\Projects\\react\\workapp\\workapp\\elasticsearch-7.10.0\\config, -Des.distribution.flavor=default, -Des.distribution.type=zip, -Des.bundled_jdk=true]" }
{"type": "server", "timestamp": "2020-11-24T08:57:05,929+01:00", "level": "INFO", "component": "o.e.p.PluginsService", "cluster.name": "elasticsearch", "node.name": "DESKTOP-SGTF270", "message": "loaded module [aggs-matrix-stats]" }
{"type": "server", "timestamp": "2020-11-24T08:57:05,929+01:00", "level": "INFO", "component": "o.e.p.PluginsService", "cluster.name": "elasticsearch", "node.name": "DESKTOP-SGTF270", "message": "loaded module [analysis-common]" }
{"type": "server", "timestamp": "2020-11-24T08:57:05,929+01:00", "level": "INFO", "component": "o.e.p.PluginsService", "cluster.name": "elasticsearch", "node.name": "DESKTOP-SGTF270", "message": "loaded module [constant-keyword]" }
{"type": "server", "timestamp": "2020-11-24T08:57:05,929+01:00", "level": "INFO", "component": "o.e.p.PluginsService", "cluster.name": "elasticsearch", "node.name": "DESKTOP-SGTF270", "message": "loaded module [flattened]" }
{"type": "server", "timestamp": "2020-11-24T08:57:05,945+01:00", "level": "INFO", "component": "o.e.p.PluginsService", "cluster.name": "elasticsearch", "node.name": "DESKTOP-SGTF270", "message": "loaded module [frozen-indices]" }
{"type": "server", "timestamp": "2020-11-24T08:57:05,945+01:00", "level": "INFO", "component": "o.e.p.PluginsService", "cluster.name": "elasticsearch", "node.name": "DESKTOP-SGTF270", "message": "loaded module [ingest-common]" }
{"type": "server", "timestamp": "2020-11-24T08:57:05,945+01:00", "level": "INFO", "component": "o.e.p.PluginsService", "cluster.name": "elasticsearch", "node.name": "DESKTOP-SGTF270", "message": "loaded module [ingest-geoip]" }
{"type": "server", "timestamp": "2020-11-24T08:57:05,945+01:00", "level": "INFO", "component": "o.e.p.PluginsService", "cluster.name": "elasticsearch", "node.name": "DESKTOP-SGTF270", "message": "loaded module [ingest-user-agent]" }
{"type": "server", "timestamp": "2020-11-24T08:57:05,945+01:00", "level": "INFO", "component": "o.e.p.PluginsService", "cluster.name": "elasticsearch", "node.name": "DESKTOP-SGTF270", "message": "loaded module [kibana]" }
{"type": "server", "timestamp": "2020-11-24T08:57:05,945+01:00", "level": "INFO", "component": "o.e.p.PluginsService", "cluster.name": "elasticsearch", "node.name": "DESKTOP-SGTF270", "message": "loaded module [lang-expression]" }
{"type": "server", "timestamp": "2020-11-24T08:57:05,945+01:00", "level": "INFO", "component": "o.e.p.PluginsService", "cluster.name": "elasticsearch", "node.name": "DESKTOP-SGTF270", "message": "loaded module [lang-mustache]" }
{"type": "server", "timestamp": "2020-11-24T08:57:05,945+01:00", "level": "INFO", "component": "o.e.p.PluginsService", "cluster.name": "elasticsearch", "node.name": "DESKTOP-SGTF270", "message": "loaded module [lang-painless]" }
{"type": "server", "timestamp": "2020-11-24T08:57:05,945+01:00", "level": "INFO", "component": "o.e.p.PluginsService", "cluster.name": "elasticsearch", "node.name": "DESKTOP-SGTF270", "message": "loaded module [mapper-extras]" }
{"type": "server", "timestamp": "2020-11-24T08:57:05,945+01:00", "level": "INFO", "component": "o.e.p.PluginsService", "cluster.name": "elasticsearch", "node.name": "DESKTOP-SGTF270", "message": "loaded module [mapper-version]" }
{"type": "server", "timestamp": "2020-11-24T08:57:05,945+01:00", "level": "INFO", "component": "o.e.p.PluginsService", "cluster.name": "elasticsearch", "node.name": "DESKTOP-SGTF270", "message": "loaded module [parent-join]" }
{"type": "server", "timestamp": "2020-11-24T08:57:05,945+01:00", "level": "INFO", "component": "o.e.p.PluginsService", "cluster.name": "elasticsearch", "node.name": "DESKTOP-SGTF270", "message": "loaded module [percolator]" }
{"type": "server", "timestamp": "2020-11-24T08:57:05,945+01:00", "level": "INFO", "component": "o.e.p.PluginsService", "cluster.name": "elasticsearch", "node.name": "DESKTOP-SGTF270", "message": "loaded module [rank-eval]" }
{"type": "server", "timestamp": "2020-11-24T08:57:05,945+01:00", "level": "INFO", "component": "o.e.p.PluginsService", "cluster.name": "elasticsearch", "node.name": "DESKTOP-SGTF270", "message": "loaded module [reindex]" }
{"type": "server", "timestamp": "2020-11-24T08:57:05,945+01:00", "level": "INFO", "component": "o.e.p.PluginsService", "cluster.name": "elasticsearch", "node.name": "DESKTOP-SGTF270", "message": "loaded module [repositories-metering-api]" }
{"type": "server", "timestamp": "2020-11-24T08:57:05,960+01:00", "level": "INFO", "component": "o.e.p.PluginsService", "cluster.name": "elasticsearch", "node.name": "DESKTOP-SGTF270", "message": "loaded module [repository-url]" }
{"type": "server", "timestamp": "2020-11-24T08:57:05,976+01:00", "level": "INFO", "component": "o.e.p.PluginsService", "cluster.name": "elasticsearch", "node.name": "DESKTOP-SGTF270", "message": "loaded module [search-business-rules]" }
{"type": "server", "timestamp": "2020-11-24T08:57:05,976+01:00", "level": "INFO", "component": "o.e.p.PluginsService", "cluster.name": "elasticsearch", "node.name": "DESKTOP-SGTF270", "message": "loaded module [searchable-snapshots]" }
{"type": "server", "timestamp": "2020-11-24T08:57:05,976+01:00", "level": "INFO", "component": "o.e.p.PluginsService", "cluster.name": "elasticsearch", "node.name": "DESKTOP-SGTF270", "message": "loaded module [spatial]" }
{"type": "server", "timestamp": "2020-11-24T08:57:05,976+01:00", "level": "INFO", "component": "o.e.p.PluginsService", "cluster.name": "elasticsearch", "node.name": "DESKTOP-SGTF270", "message": "loaded module [transform]" }
{"type": "server", "timestamp": "2020-11-24T08:57:05,976+01:00", "level": "INFO", "component": "o.e.p.PluginsService", "cluster.name": "elasticsearch", "node.name": "DESKTOP-SGTF270", "message": "loaded module [transport-netty4]" }
{"type": "server", "timestamp": "2020-11-24T08:57:05,976+01:00", "level": "INFO", "component": "o.e.p.PluginsService", "cluster.name": "elasticsearch", "node.name": "DESKTOP-SGTF270", "message": "loaded module [unsigned-long]" }
{"type": "server", "timestamp": "2020-11-24T08:57:05,976+01:00", "level": "INFO", "component": "o.e.p.PluginsService", "cluster.name": "elasticsearch", "node.name": "DESKTOP-SGTF270", "message": "loaded module [vectors]" }
{"type": "server", "timestamp": "2020-11-24T08:57:05,976+01:00", "level": "INFO", "component": "o.e.p.PluginsService", "cluster.name": "elasticsearch", "node.name": "DESKTOP-SGTF270", "message": "loaded module [wildcard]" }
{"type": "server", "timestamp": "2020-11-24T08:57:05,976+01:00", "level": "INFO", "component": "o.e.p.PluginsService", "cluster.name": "elasticsearch", "node.name": "DESKTOP-SGTF270", "message": "loaded module [x-pack-analytics]" }
{"type": "server", "timestamp": "2020-11-24T08:57:05,976+01:00", "level": "INFO", "component": "o.e.p.PluginsService", "cluster.name": "elasticsearch", "node.name": "DESKTOP-SGTF270", "message": "loaded module [x-pack-async]" }
{"type": "server", "timestamp": "2020-11-24T08:57:05,976+01:00", "level": "INFO", "component": "o.e.p.PluginsService", "cluster.name": "elasticsearch", "node.name": "DESKTOP-SGTF270", "message": "loaded module [x-pack-async-search]" }
{"type": "server", "timestamp": "2020-11-24T08:57:05,976+01:00", "level": "INFO", "component": "o.e.p.PluginsService", "cluster.name": "elasticsearch", "node.name": "DESKTOP-SGTF270", "message": "loaded module [x-pack-autoscaling]" }
{"type": "server", "timestamp": "2020-11-24T08:57:05,976+01:00", "level": "INFO", "component": "o.e.p.PluginsService", "cluster.name": "elasticsearch", "node.name": "DESKTOP-SGTF270", "message": "loaded module [x-pack-ccr]" }
{"type": "server", "timestamp": "2020-11-24T08:57:05,976+01:00", "level": "INFO", "component": "o.e.p.PluginsService", "cluster.name": "elasticsearch", "node.name": "DESKTOP-SGTF270", "message": "loaded module [x-pack-core]" }
{"type": "server", "timestamp": "2020-11-24T08:57:05,976+01:00", "level": "INFO", "component": "o.e.p.PluginsService", "cluster.name": "elasticsearch", "node.name": "DESKTOP-SGTF270", "message": "loaded module [x-pack-data-streams]" }
{"type": "server", "timestamp": "2020-11-24T08:57:05,991+01:00", "level": "INFO", "component": "o.e.p.PluginsService", "cluster.name": "elasticsearch", "node.name": "DESKTOP-SGTF270", "message": "loaded module [x-pack-deprecation]" }
{"type": "server", "timestamp": "2020-11-24T08:57:05,991+01:00", "level": "INFO", "component": "o.e.p.PluginsService", "cluster.name": "elasticsearch", "node.name": "DESKTOP-SGTF270", "message": "loaded module [x-pack-enrich]" }
{"type": "server", "timestamp": "2020-11-24T08:57:05,991+01:00", "level": "INFO", "component": "o.e.p.PluginsService", "cluster.name": "elasticsearch", "node.name": "DESKTOP-SGTF270", "message": "loaded module [x-pack-eql]" }
{"type": "server", "timestamp": "2020-11-24T08:57:05,991+01:00", "level": "INFO", "component": "o.e.p.PluginsService", "cluster.name": "elasticsearch", "node.name": "DESKTOP-SGTF270", "message": "loaded module [x-pack-graph]" }
{"type": "server", "timestamp": "2020-11-24T08:57:05,991+01:00", "level": "INFO", "component": "o.e.p.PluginsService", "cluster.name": "elasticsearch", "node.name": "DESKTOP-SGTF270", "message": "loaded module [x-pack-identity-provider]" }
{"type": "server", "timestamp": "2020-11-24T08:57:05,991+01:00", "level": "INFO", "component": "o.e.p.PluginsService", "cluster.name": "elasticsearch", "node.name": "DESKTOP-SGTF270", "message": "loaded module [x-pack-ilm]" }
{"type": "server", "timestamp": "2020-11-24T08:57:05,991+01:00", "level": "INFO", "component": "o.e.p.PluginsService", "cluster.name": "elasticsearch", "node.name": "DESKTOP-SGTF270", "message": "loaded module [x-pack-logstash]" }
{"type": "server", "timestamp": "2020-11-24T08:57:05,991+01:00", "level": "INFO", "component": "o.e.p.PluginsService", "cluster.name": "elasticsearch", "node.name": "DESKTOP-SGTF270", "message": "loaded module [x-pack-ml]" }
{"type": "server", "timestamp": "2020-11-24T08:57:05,991+01:00", "level": "INFO", "component": "o.e.p.PluginsService", "cluster.name": "elasticsearch", "node.name": "DESKTOP-SGTF270", "message": "loaded module [x-pack-monitoring]" }
{"type": "server", "timestamp": "2020-11-24T08:57:05,991+01:00", "level": "INFO", "component": "o.e.p.PluginsService", "cluster.name": "elasticsearch", "node.name": "DESKTOP-SGTF270", "message": "loaded module [x-pack-ql]" }
{"type": "server", "timestamp": "2020-11-24T08:57:05,991+01:00", "level": "INFO", "component": "o.e.p.PluginsService", "cluster.name": "elasticsearch", "node.name": "DESKTOP-SGTF270", "message": "loaded module [x-pack-rollup]" }
{"type": "server", "timestamp": "2020-11-24T08:57:05,991+01:00", "level": "INFO", "component": "o.e.p.PluginsService", "cluster.name": "elasticsearch", "node.name": "DESKTOP-SGTF270", "message": "loaded module [x-pack-security]" }
{"type": "server", "timestamp": "2020-11-24T08:57:05,991+01:00", "level": "INFO", "component": "o.e.p.PluginsService", "cluster.name": "elasticsearch", "node.name": "DESKTOP-SGTF270", "message": "loaded module [x-pack-sql]" }
{"type": "server", "timestamp": "2020-11-24T08:57:05,991+01:00", "level": "INFO", "component": "o.e.p.PluginsService", "cluster.name": "elasticsearch", "node.name": "DESKTOP-SGTF270", "message": "loaded module [x-pack-stack]" }
{"type": "server", "timestamp": "2020-11-24T08:57:06,007+01:00", "level": "INFO", "component": "o.e.p.PluginsService", "cluster.name": "elasticsearch", "node.name": "DESKTOP-SGTF270", "message": "loaded module [x-pack-voting-only-node]" }
{"type": "server", "timestamp": "2020-11-24T08:57:06,007+01:00", "level": "INFO", "component": "o.e.p.PluginsService", "cluster.name": "elasticsearch", "node.name": "DESKTOP-SGTF270", "message": "loaded module [x-pack-watcher]" }
{"type": "server", "timestamp": "2020-11-24T08:57:06,007+01:00", "level": "INFO", "component": "o.e.p.PluginsService", "cluster.name": "elasticsearch", "node.name": "DESKTOP-SGTF270", "message": "no plugins loaded" }
{"type": "server", "timestamp": "2020-11-24T08:57:22,267+01:00", "level": "INFO", "component": "o.e.e.NodeEnvironment", "cluster.name": "elasticsearch", "node.name": "DESKTOP-SGTF270", "message": "using [1] data paths, mounts [[DATA (D:)]], net usable_space [252.6gb], net total_space [258.3gb], types [NTFS]" }
{"type": "server", "timestamp": "2020-11-24T08:57:22,267+01:00", "level": "INFO", "component": "o.e.e.NodeEnvironment", "cluster.name": "elasticsearch", "node.name": "DESKTOP-SGTF270", "message": "heap size [1gb], compressed ordinary object pointers [true]" }
{"type": "server", "timestamp": "2020-11-24T08:57:22,814+01:00", "level": "INFO", "component": "o.e.n.Node", "cluster.name": "elasticsearch", "node.name": "DESKTOP-SGTF270", "message": "node name [DESKTOP-SGTF270], node ID [P8fAzerrTLSM979mccBJYg], cluster name [elasticsearch], roles [transform, master, remote_cluster_client, data, ml, data_content, data_hot, data_warm, data_cold, ingest]" }
{"type": "server", "timestamp": "2020-11-24T08:57:33,245+01:00", "level": "INFO", "component": "o.e.x.m.p.l.CppLogMessageHandler", "cluster.name": "elasticsearch", "node.name": "DESKTOP-SGTF270", "message": "[controller/4304] [Main.cc@114] controller (64 bit): Version 7.10.0 (Build ac991e2e31f99d) Copyright (c) 2020 Elasticsearch BV" }
{"type": "server", "timestamp": "2020-11-24T08:57:34,573+01:00", "level": "INFO", "component": "o.e.x.s.a.s.FileRolesStore", "cluster.name": "elasticsearch", "node.name": "DESKTOP-SGTF270", "message": "parsed [0] roles from file [D:\\Projects\\react\\workapp\\workapp\\elasticsearch-7.10.0\\config\\roles.yml]" }
{"type": "server", "timestamp": "2020-11-24T08:57:38,192+01:00", "level": "INFO", "component": "o.e.t.NettyAllocator", "cluster.name": "elasticsearch", "node.name": "DESKTOP-SGTF270", "message": "creating NettyAllocator with the following configs: [name=unpooled, suggested_max_allocation_size=256kb, factors={es.unsafe.use_unpooled_allocator=null, g1gc_enabled=true, g1gc_region_size=1mb, heap_size=1gb}]" }
{"type": "server", "timestamp": "2020-11-24T08:57:38,395+01:00", "level": "INFO", "component": "o.e.d.DiscoveryModule", "cluster.name": "elasticsearch", "node.name": "DESKTOP-SGTF270", "message": "using discovery type [zen] and seed hosts providers [settings]" }
{"type": "server", "timestamp": "2020-11-24T08:57:39,474+01:00", "level": "WARN", "component": "o.e.g.DanglingIndicesState", "cluster.name": "elasticsearch", "node.name": "DESKTOP-SGTF270", "message": "gateway.auto_import_dangling_indices is disabled, dangling indices will not be automatically detected or imported and must be managed manually" }
{"type": "server", "timestamp": "2020-11-24T08:57:40,632+01:00", "level": "INFO", "component": "o.e.n.Node", "cluster.name": "elasticsearch", "node.name": "DESKTOP-SGTF270", "message": "initialized" }
{"type": "server", "timestamp": "2020-11-24T08:57:40,632+01:00", "level": "INFO", "component": "o.e.n.Node", "cluster.name": "elasticsearch", "node.name": "DESKTOP-SGTF270", "message": "starting ..." }
{"type": "server", "timestamp": "2020-11-24T08:57:42,593+01:00", "level": "INFO", "component": "o.e.t.TransportService", "cluster.name": "elasticsearch", "node.name": "DESKTOP-SGTF270", "message": "publish_address {127.0.0.1:9300}, bound_addresses {127.0.0.1:9300}, {[::1]:9300}" }
{"type": "server", "timestamp": "2020-11-24T08:57:44,046+01:00", "level": "WARN", "component": "o.e.b.BootstrapChecks", "cluster.name": "elasticsearch", "node.name": "DESKTOP-SGTF270", "message": "the default discovery settings are unsuitable for production use; at least one of [discovery.seed_hosts, discovery.seed_providers, cluster.initial_master_nodes] must be configured" }
{"type": "server", "timestamp": "2020-11-24T08:57:44,046+01:00", "level": "INFO", "component": "o.e.c.c.Coordinator", "cluster.name": "elasticsearch", "node.name": "DESKTOP-SGTF270", "message": "cluster UUID [Xb8TMpCfS62XiITIubuStg]" }
{"type": "server", "timestamp": "2020-11-24T08:57:44,077+01:00", "level": "INFO", "component": "o.e.c.c.ClusterBootstrapService", "cluster.name": "elasticsearch", "node.name": "DESKTOP-SGTF270", "message": "no discovery configuration found, will perform best-effort cluster bootstrapping after [3s] unless existing master is discovered" }
{"type": "server", "timestamp": "2020-11-24T08:57:44,458+01:00", "level": "INFO", "component": "o.e.c.s.MasterService", "cluster.name": "elasticsearch", "node.name": "DESKTOP-SGTF270", "message": "elected-as-master ([1] nodes joined)[{DESKTOP-SGTF270}{P8fAzerrTLSM979mccBJYg}{7Y2AoRB8T-K9AylfNXNbCA}{127.0.0.1}{127.0.0.1:9300}{cdhilmrstw}{ml.machine_memory=4175101952, xpack.installed=true, transform.node=true, ml.max_open_jobs=20} elect leader, _BECOME_MASTER_TASK_, _FINISH_ELECTION_], term: 13, version: 373, delta: master node changed {previous [], current [{DESKTOP-SGTF270}{P8fAzerrTLSM979mccBJYg}{7Y2AoRB8T-K9AylfNXNbCA}{127.0.0.1}{127.0.0.1:9300}{cdhilmrstw}{ml.machine_memory=4175101952, xpack.installed=true, transform.node=true, ml.max_open_jobs=20}]}" }
{"type": "server", "timestamp": "2020-11-24T08:57:44,927+01:00", "level": "INFO", "component": "o.e.c.s.ClusterApplierService", "cluster.name": "elasticsearch", "node.name": "DESKTOP-SGTF270", "message": "master node changed {previous [], current [{DESKTOP-SGTF270}{P8fAzerrTLSM979mccBJYg}{7Y2AoRB8T-K9AylfNXNbCA}{127.0.0.1}{127.0.0.1:9300}{cdhilmrstw}{ml.machine_memory=4175101952, xpack.installed=true, transform.node=true, ml.max_open_jobs=20}]}, term: 13, version: 373, reason: Publication{term=13, version=373}" }
{"type": "server", "timestamp": "2020-11-24T08:57:45,570+01:00", "level": "INFO", "component": "o.e.h.AbstractHttpServerTransport", "cluster.name": "elasticsearch", "node.name": "DESKTOP-SGTF270", "message": "publish_address {127.0.0.1:9200}, bound_addresses {127.0.0.1:9200}, {[::1]:9200}", "cluster.uuid": "Xb8TMpCfS62XiITIubuStg", "node.id": "P8fAzerrTLSM979mccBJYg"  }
{"type": "server", "timestamp": "2020-11-24T08:57:45,570+01:00", "level": "INFO", "component": "o.e.n.Node", "cluster.name": "elasticsearch", "node.name": "DESKTOP-SGTF270", "message": "started", "cluster.uuid": "Xb8TMpCfS62XiITIubuStg", "node.id": "P8fAzerrTLSM979mccBJYg"  }
{"type": "server", "timestamp": "2020-11-24T08:57:46,179+01:00", "level": "INFO", "component": "o.e.l.LicenseService", "cluster.name": "elasticsearch", "node.name": "DESKTOP-SGTF270", "message": "license [30bf845d-c28d-42a0-bfae-5dad0331477b] mode [basic] - valid", "cluster.uuid": "Xb8TMpCfS62XiITIubuStg", "node.id": "P8fAzerrTLSM979mccBJYg"  }
{"type": "server", "timestamp": "2020-11-24T08:57:46,179+01:00", "level": "INFO", "component": "o.e.x.s.s.SecurityStatusChangeListener", "cluster.name": "elasticsearch", "node.name": "DESKTOP-SGTF270", "message": "Active license is now [BASIC]; Security is disabled", "cluster.uuid": "Xb8TMpCfS62XiITIubuStg", "node.id": "P8fAzerrTLSM979mccBJYg"  }
{"type": "server", "timestamp": "2020-11-24T08:57:46,179+01:00", "level": "INFO", "component": "o.e.g.GatewayService", "cluster.name": "elasticsearch", "node.name": "DESKTOP-SGTF270", "message": "recovered [2] indices into cluster_state", "cluster.uuid": "Xb8TMpCfS62XiITIubuStg", "node.id": "P8fAzerrTLSM979mccBJYg"  }
{"type": "server", "timestamp": "2020-11-24T08:57:49,018+01:00", "level": "INFO", "component": "o.e.c.r.a.AllocationService", "cluster.name": "elasticsearch", "node.name": "DESKTOP-SGTF270", "message": "Cluster health status changed from [RED] to [YELLOW] (reason: [shards started [[game-of-thrones][0], [regions][0]]]).", "cluster.uuid": "Xb8TMpCfS62XiITIubuStg", "node.id": "P8fAzerrTLSM979mccBJYg"  }
